,path,mse,tp,tn,fp,fn
0,clips/0531/1495489411784218269/20.jpg,35.501526445537245,42,64,15,47
1,clips/0531/1492721529994523466/20.jpg,162.08659439551747,15,58,9,86
2,clips/0531/1492722689531523433/20.jpg,88.16669296223127,18,52,13,85
3,clips/0531/1492628910351761783/20.jpg,63.96071899574673,15,63,6,84
4,clips/0531/1492635233381173458/20.jpg,147.9478056205182,10,67,3,88
5,clips/0531/1492629646273459822/20.jpg,12.189503307305216,42,38,30,58
6,clips/0531/1492629947824612800/20.jpg,136.01803058550732,8,57,12,91
7,clips/0531/1492629831863244351/20.jpg,149.7731790590623,17,53,1,97
8,clips/0531/1492636578474936420/20.jpg,37.374138442068855,44,61,10,53
9,clips/0531/1492629736818822193/20.jpg,199.89173071788525,43,24,33,68
10,clips/0531/1492634665125659146/20.jpg,304.3468552726237,9,44,2,113
11,clips/0531/1495487724908810234/20.jpg,158.97189292574248,15,63,11,79
12,clips/0531/1492627938008984840/20.jpg,174.85801463133058,25,52,9,82
13,clips/0531/1492627132361834524/20.jpg,36.152175383008355,55,80,28,61
14,clips/0531/1492636333420490993/20.jpg,260.49219911413167,5,57,1,105
15,clips/0531/1492637227149541027/20.jpg,107.25758518323931,49,18,30,71
16,clips/0531/1492729366760397191/20.jpg,65.13369422763684,10,69,7,82
17,clips/0531/1492628284963802705/20.jpg,118.97908155513345,14,63,9,82
18,clips/0531/1492729384983435768/20.jpg,216.29828998811385,9,62,9,88
19,clips/0531/1492628418216963114/20.jpg,54.90827305603782,15,61,3,89
20,clips/0531/1492628366948915805/20.jpg,277.2766091373351,0,63,2,103
21,clips/0531/1492729236605688719/20.jpg,94.09904636509327,8,59,1,100
22,clips/0531/1492631610121379328/20.jpg,168.25117101132204,33,34,21,80
23,clips/0531/1492635711627226753/20.jpg,189.83983937474525,11,60,1,96
24,clips/0531/1492639050083391922/20.jpg,7.987252825402854,54,79,34,57
25,clips/0531/1492637993453896169/20.jpg,287.3382666147319,8,54,3,103
26,clips/0531/1492636854007591530/20.jpg,22.937729107938647,43,67,8,50
27,clips/0531/1495489411784218269/20.jpg,35.501526445537245,42,64,15,47
28,clips/0531/1492628032250037427/20.jpg,11.2012693451599,11,61,8,88
29,clips/0531/1492636165621272495/20.jpg,167.74798347606279,17,52,1,98
30,clips/0531/1492629773332530394/20.jpg,38.88506365926377,9,53,6,100
31,clips/0531/1492636814431090956/20.jpg,84.61600297724672,43,73,35,73
32,clips/0531/1492636594396885382/20.jpg,102.37944641493276,47,25,30,66
33,clips/0531/1492635523873705532/20.jpg,264.9242437681144,4,57,0,107
34,clips/0531/1492635038232714655/20.jpg,224.2864150625379,13,56,6,93
35,clips/0531/1492626868723674847/20.jpg,59.25955354627597,51,85,18,70
36,clips/0531/1492627476056061974/20.jpg,73.86005855422692,32,57,20,59
37,clips/0531/1492723393440906653/20.jpg,161.12203252895463,10,58,15,85
38,clips/0531/1492637303172331366/20.jpg,14.402094923655925,44,26,32,66
39,clips/0531/1492637913568775940/20.jpg,141.79020875905056,15,58,6,89
40,clips/0531/1492638000682869180/20.jpg,73.94828778805713,17,47,2,102
41,clips/0531/1492630063223854419/20.jpg,197.1366866553182,12,44,6,106
42,clips/0531/1492634974503575619/20.jpg,187.09731839976516,7,44,2,115
43,clips/0531/1492726788539484552/20.jpg,5.626507988960803,43,33,31,61
44,clips/0531/1492628027554005406/20.jpg,133.66803223157157,13,61,5,89
45,clips/0531/1492636598960834765/20.jpg,11.888504953736543,47,19,30,72
46,clips/0531/1492636332422260674/20.jpg,237.66843778677483,11,54,5,98
47,clips/0531/1492637347312844521/20.jpg,51.88485917407208,44,81,1,42
48,clips/0531/1492727547951279107/20.jpg,10.309676044563231,63,61,32,68
49,clips/0531/1492628850321379797/20.jpg,49.085862350623756,14,58,10,86
50,clips/0531/1492636578474936420/20.jpg,37.374138442068855,44,61,10,53
51,clips/0531/1492626344839162069/20.jpg,125.33500571808683,13,58,7,90
52,clips/0531/1492628715539221502/20.jpg,59.90445238885987,13,52,10,93
53,clips/0531/1492626720211673794/20.jpg,172.36276595157145,15,50,9,94
54,clips/0531/1492638094394898948/20.jpg,9.883832118560049,7,65,23,73
55,clips/0531/1492638156690688906/20.jpg,284.22096295439286,0,59,12,97
56,clips/0531/1492627950135470934/20.jpg,218.53412717732064,15,60,6,87
57,clips/0531/1492629649538164911/20.jpg,10.002417494320992,42,41,29,56
58,clips/0531/1492626292371547028/20.jpg,18.262850313211317,66,60,31,67
59,clips/0531/1492637146664485019/20.jpg,93.14158238944223,48,19,31,70
60,clips/0531/1495489721550725241/20.jpg,23.620452097954068,46,24,32,66
61,clips/0531/1492627190793480864/20.jpg,31.26404812715808,61,70,30,63
62,clips/0531/1492637407540654748/20.jpg,67.8186106908496,47,20,30,71
63,clips/0531/1492635838017983538/20.jpg,177.48440291244495,12,60,1,95
64,clips/0531/1492638245337349327/20.jpg,203.8229997875112,13,56,1,98
65,clips/0531/1492637373194745306/20.jpg,116.39239895701303,27,23,30,88
66,clips/0531/1492726157649454642/20.jpg,176.63413062212683,17,54,2,95
67,clips/0531/1492726182168088891/20.jpg,144.42995112855803,13,59,3,93
68,clips/0531/1492637402746058180/20.jpg,67.81635531265373,47,9,32,80
69,clips/0531/1492727522699909804/20.jpg,8.963256204638826,41,35,32,60
70,clips/0531/1492729140532526751/20.jpg,85.27670738299571,47,61,40,76
71,clips/0531/1492626364327255872/20.jpg,102.77984862883426,12,70,1,85
72,clips/0531/1495487775739454330/20.jpg,182.3739795438579,13,65,3,87
73,clips/0531/1492626718748019090/20.jpg,192.5058298428967,13,52,5,98
